[
  { "route": "/" },
  { "route": "/blog" },
  {
    "route": "/blog/2020-02-05-blog",
    "title": "2020-02-05-blog",
    "description": "blog description",
    "publish": true,
    "sourceFile": "2020-02-05-blog.md"
  }
]
